…
```
## tiempo_0 = 2022-01-03
```


```r
# check prueba
prueba_matching_2022_01_03 %>% 
  mutate(survtime = date_end - date_start) %>% 
  arrange(survtime)
```

```
## # A tibble: 1,144 × 54
##      par id       n_0   gen fnac       gedad fdef   migran lapna     ctsi  resn 
##    <int> <chr>  <dbl> <dbl> <date>     <dbl> <date>  <dbl> <fct>     <fct> <lgl>
##  1    73 19138…     2     1 1969-10-12     4 NA          0 España    004   FALSE
##  2    76 196821     2     1 1962-08-30     5 NA          0 España    004   FALSE
##  3   165 62948…     1     2 1968-07-05     4 NA          1 AmeSur    003   FALSE
##  4   167 637111     3     1 1964-02-22     5 NA          0 España    003   FALSE
##  5   201 88947      2     1 1967-10-14     4 NA          0 España    001   FALSE
##  6   287 221119     0     1 1969-10-02     4 NA          0 España    otros FALSE
##  7   318 304841     0     1 1967-10-17     4 NA          0 España    004   FALSE
##  8   326 322638     0     1 1962-03-06     5 NA          0 España    004   FALSE
##  9   333 357882     0     2 1967-04-10     4 NA          0 España    003   FALSE
## 10   341 417972     0     1 1969-01-01     4 NA          1 Marruecos 003   FALSE
## # … with 1,134 more rows, and 43 more variables: ucn8 <dbl>, domi <dbl>,
## #   rentasc <fct>, czbs <dbl>, prfss <lgl>, educa <lgl>, vuln <dbl>,
## #   depe <lgl>, deme <dbl>, diab <dbl>, ainm <dbl>, corp <dbl>, irc <dbl>,
## #   epoc <dbl>, hlip <dbl>, hta <dbl>, ictu <dbl>, obes <dbl>, imc <dbl>,
## #   cimc <fct>, vgp20 <dbl>, vgp21 <dbl>, tvc1 <chr>, vcix <lgl>, fvc1 <date>,
## #   tvc2 <dbl>, fvc2 <date>, tvc3 <chr>, fvc3 <date>, cvsn <int>, fcv1 <date>,
## #   fcv2 <date>, fih1 <date>, ucisn <int>, fuci <date>, fnac_40 <date>, …
```
…
```r
  base_analisis <- base_analisis %>% 
    mutate(survtime = date_end - date_start)
  
  base_analisis %>% 
    count(survtime, exposicion)
```

```
## # A tibble: 112 × 3
##    survtime exposicion     n
##    <drtn>        <dbl> <int>
##  1 0 days            0     3
##  2 1 days            0   276
##  3 1 days            1   276
##  4 2 days            0    96
##  5 2 days            1    95
##  6 3 days            0   180
##  7 3 days            1   176
##  8 4 days            0   162
##  9 4 days            1   161
## 10 5 days            0   114
## # … with 102 more rows
```
…
